{
  "project_info": {
    "project_number": "994402808413",
    "project_id": "bookintroducation",
    "storage_bucket": "bookintroducation.appspot.com"
  },
  "client": [
    {
      "client_info": {
        "mobilesdk_app_id": "1:994402808413:android:2b92cd1e53a00edf1ed3b4",
        "android_client_info": {
          "package_name": "com.bookintroducation_v1"
        }
      },
      "oauth_client": [
        {
          "client_id": "994402808413-qf5onh03ouhkj3vg70l9v78ukh3f69so.apps.googleusercontent.com",
          "client_type": 1,
          "android_info": {
            "package_name": "com.bookintroducation_v1",
            "certificate_hash": "5e8f16062ea3cd2c4a0d547876baa6f38cabf625"
          }
        },
        {
          "client_id": "994402808413-pi6iigdoic8rv8glphfmqfgkktg2jpmf.apps.googleusercontent.com",
          "client_type": 3
        }
      ],
      "api_key": [
        {
          "current_key": "AIzaSyAouhXo3VVfdilkA4AZBO50El87L0j7Hmg"
        }
      ],
      "services": {
        "appinvite_service": {
          "other_platform_oauth_client": [
            {
              "client_id": "994402808413-pi6iigdoic8rv8glphfmqfgkktg2jpmf.apps.googleusercontent.com",
              "client_type": 3
            }
          ]
        }
      }
    }
  ],
  "configuration_version": "1"
}